Comparing Protected Areas selection in 3 BETSAKA Working Units
…
pa_list_inconsistencies

# A tibble: 44 × 7
   WDPAID    NAME_WU11               NAME_WU12 NAME_WU21 in_wu11 in_wu12 in_wu21
   <chr>     <chr>                   <chr>     <chr>     <lgl>   <lgl>   <lgl>  
 1 166880    Complexe Tsimembo Mana… Complexe… <NA>      TRUE    TRUE    FALSE  
 2 166881    Parc national Tsimanam… <NA>      <NA>      TRUE    FALSE   FALSE  
 3 555512161 Velondriake             <NA>      Velondri… TRUE    FALSE   TRUE   
 4 555542728 Rivière Nosivolo et af… <NA>      <NA>      TRUE    FALSE   FALSE  
 5 555547960 Lac Kinkony             <NA>      <NA>      TRUE    FALSE   FALSE  
 6 555547961 Mandrozo                Mandrozo  <NA>      TRUE    TRUE    FALSE  
 7 555548845 Soariake                <NA>      Soariake  TRUE    FALSE   TRUE   
 8 555548847 Ankivonjy               <NA>      Ankivonjy TRUE    FALSE   TRUE   
 9 555548848 Ankarea                 <NA>      Ankarea   TRUE    FALSE   TRUE   
10 555548868 Ambodivahibe            <NA>      Ambodiva… TRUE    FALSE   TRUE   
# ℹ 34 more rows
…
pa_metadata_inconsistencies

# A tibble: 76 × 9
   WDPAID    NAME_WU11         NAME_WU12 NAME_WU21 YEAR_WU11 YEAR_WU12 YEAR_WU21
   <chr>     <chr>             <chr>     <chr>         <int>     <int>     <int>
 1 555697882 Massif d'Itremo   Massif d… Massif d…      1951      2008      2015
 2 1299      Ankarafantsika    Ankarafa… Ankarafa…      1958      1927      1927
 3 20272     Befotaka Midongy  Befotaka… Befotaka…      1997      1997      1953
 4 20273     Zombitse Vohibas… Zombitse… Zombitse…      1997      2015      1997
 5 2303      Andohahela        Andohahe… Andohahe…      2015      1939      1939
 6 2305      Marojejy          Marojejy  Marojejy       1998      1952      1952
 7 2308      Andringitra       Andringi… Andringi…      1998      1927      1927
 8 2309      Namoroka          Namoroka  Namoroka       2004      1927      1927
 9 2310      Betampona         Betampona Betampona      1997      1927      1927
10 2311      Lokobe            Lokobe    Lokobe         2011      1927      1927
# ℹ 66 more rows
# ℹ 2 more variables: n_distinct_names <int>, n_distinct_years <int>

The table above flags the PAs for which the three WUs disagree on either the PA label or the year of establishment. Rows with n_distinct_years > 1 are the most urgent because they imply different treatment timing across analyses, while rows with n_distinct_names > 1 are mainly harmonization issues that can still break joins and comparisons.

Year inconsistencies to correct first

year_inconsistencies <- pa_metadata_inconsistencies |>
  filter(n_distinct_years > 1)

year_inconsistencies

# A tibble: 75 × 9
   WDPAID    NAME_WU11         NAME_WU12 NAME_WU21 YEAR_WU11 YEAR_WU12 YEAR_WU21
   <chr>     <chr>             <chr>     <chr>         <int>     <int>     <int>
 1 555697882 Massif d'Itremo   Massif d… Massif d…      1951      2008      2015
 2 1299      Ankarafantsika    Ankarafa… Ankarafa…      1958      1927      1927
 3 20272     Befotaka Midongy  Befotaka… Befotaka…      1997      1997      1953
 4 20273     Zombitse Vohibas… Zombitse… Zombitse…      1997      2015      1997
 5 2303      Andohahela        Andohahe… Andohahe…      2015      1939      1939
 6 2305      Marojejy          Marojejy  Marojejy       1998      1952      1952
 7 2308      Andringitra       Andringi… Andringi…      1998      1927      1927
 8 2309      Namoroka          Namoroka  Namoroka       2004      1927      1927
 9 2310      Betampona         Betampona Betampona      1997      1927      1927
10 2311      Lokobe            Lokobe    Lokobe         2011      1927      1927
# ℹ 65 more rows
# ℹ 2 more variables: n_distinct_names <int>, n_distinct_years <int>
